sim/soc_wave.vcd
$date
	Thu Mar  5 16:56:57 2026
$end
$version
	Icarus Verilog
$end
$timescale
	1ps
$end
$scope module tb_soc $end
$var reg 1 ! clk $end
$var reg 1 " resetn $end
$scope module uut $end
$var wire 1 ! clk $end
$var wire 32 # mem_rdata [31:0] $end
$var wire 1 $ mem_ready $end
$var wire 1 " resetn $end
$var wire 32 % ram_rdata [31:0] $end
$var wire 4 & mem_wstrb [3:0] $end
$var wire 32 ' mem_wdata [31:0] $end
$var wire 1 ( mem_valid $end
$var wire 1 ) mem_instr $end
$var wire 32 * mem_addr [31:0] $end
$scope module cpu $end
$var wire 1 ! clk $end
$var wire 32 + dbg_mem_addr [31:0] $end
$var wire 1 , dbg_mem_instr $end
$var wire 32 - dbg_mem_rdata [31:0] $end
$var wire 1 . dbg_mem_ready $end
$var wire 1 / dbg_mem_valid $end
$var wire 32 0 dbg_mem_wdata [31:0] $end
$var wire 4 1 dbg_mem_wstrb [3:0] $end
$var wire 1 2 instr_trap $end
$var wire 32 3 irq [31:0] $end
$var wire 1 4 launch_next_insn $end
$var wire 1 5 mem_done $end
$var wire 1 6 mem_la_firstword $end
$var wire 1 7 mem_la_firstword_xfer $end
$var wire 1 8 mem_la_read $end
$var wire 1 9 mem_la_use_prefetched_high_word $end
$var wire 1 : mem_la_write $end
$var wire 32 ; mem_rdata [31:0] $end
$var wire 32 < mem_rdata_latched [31:0] $end
$var wire 1 $ mem_ready $end
$var wire 1 = mem_xfer $end
$var wire 32 > pcpi_div_rd [31:0] $end
$var wire 1 ? pcpi_div_ready $end
$var wire 1 @ pcpi_div_wait $end
$var wire 1 A pcpi_div_wr $end
$var wire 32 B pcpi_mul_rd [31:0] $end
$var wire 1 C pcpi_mul_ready $end
$var wire 1 D pcpi_mul_wait $end
$var wire 1 E pcpi_mul_wr $end
$var wire 32 F pcpi_rd [31:0] $end
$var wire 1 G pcpi_ready $end
$var wire 32 H pcpi_rs1 [31:0] $end
$var wire 32 I pcpi_rs2 [31:0] $end
$var wire 1 J pcpi_wait $end
$var wire 1 K pcpi_wr $end
$var wire 1 " resetn $end
$var wire 32 L next_pc [31:0] $end
$var wire 32 M mem_rdata_latched_noshuffle [31:0] $end
$var wire 32 N mem_la_addr [31:0] $end
$var wire 1 O mem_busy $end
$var wire 1 P is_rdcycle_rdcycleh_rdinstr_rdinstrh $end
$var parameter 1 Q BARREL_SHIFTER $end
$var parameter 1 R CATCH_ILLINSN $end
$var parameter 1 S CATCH_MISALIGN $end
$var parameter 1 T COMPRESSED_ISA $end
$var parameter 1 U ENABLE_COUNTERS $end
$var parameter 1 V ENABLE_COUNTERS64 $end
$var parameter 1 W ENABLE_DIV $end
$var parameter 1 X ENABLE_FAST_MUL $end
$var parameter 1 Y ENABLE_IRQ $end
$var parameter 1 Z ENABLE_IRQ_QREGS $end
$var parameter 1 [ ENABLE_IRQ_TIMER $end
$var parameter 1 \ ENABLE_MUL $end
$var parameter 1 ] ENABLE_PCPI $end
$var parameter 1 ^ ENABLE_REGS_16_31 $end
$var parameter 1 _ ENABLE_REGS_DUALPORT $end
$var parameter 1 ` ENABLE_TRACE $end
$var parameter 32 a LATCHED_IRQ $end
$var parameter 1 b LATCHED_MEM_RDATA $end
$var parameter 32 c MASKED_IRQ $end
$var parameter 32 d PROGADDR_IRQ $end
$var parameter 32 e PROGADDR_RESET $end
$var parameter 1 f REGS_INIT_ZERO $end
$var parameter 32 g STACKADDR $end
$var parameter 36 h TRACE_ADDR $end
$var parameter 36 i TRACE_BRANCH $end
$var parameter 36 j TRACE_IRQ $end
$var parameter 1 k TWO_CYCLE_ALU $end
$var parameter 1 l TWO_CYCLE_COMPARE $end
$var parameter 1 m TWO_STAGE_SHIFT $end
$var parameter 1 n WITH_PCPI $end
$var parameter 8 o cpu_state_exec $end
$var parameter 8 p cpu_state_fetch $end
$var parameter 8 q cpu_state_ld_rs1 $end
$var parameter 8 r cpu_state_ld_rs2 $end
$var parameter 8 s cpu_state_ldmem $end
$var parameter 8 t cpu_state_shift $end
$var parameter 8 u cpu_state_stmem $end
$var parameter 8 v cpu_state_trap $end
$var parameter 32 w irq_buserror $end
$var parameter 32 x irq_ebreak $end
$var parameter 32 y irq_timer $end
$var parameter 32 z irqregs_offset $end
$var parameter 32 { regfile_size $end
$var parameter 32 | regindex_bits $end
$var reg 32 } alu_add_sub [31:0] $end
$var reg 1 ~ alu_eq $end
$var reg 1 !" alu_lts $end
$var reg 1 "" alu_ltu $end
$var reg 32 #" alu_out [31:0] $end
$var reg 1 $" alu_out_0 $end
$var reg 1 %" alu_out_0_q $end
$var reg 32 &" alu_out_q [31:0] $end
$var reg 32 '" alu_shl [31:0] $end
$var reg 32 (" alu_shr [31:0] $end
$var reg 1 )" alu_wait $end
$var reg 1 *" alu_wait_2 $end
$var reg 64 +" cached_ascii_instr [63:0] $end
$var reg 32 ," cached_insn_imm [31:0] $end
$var reg 32 -" cached_insn_opcode [31:0] $end
$var reg 5 ." cached_insn_rd [4:0] $end
$var reg 5 /" cached_insn_rs1 [4:0] $end
$var reg 5 0" cached_insn_rs2 [4:0] $end
$var reg 1 1" clear_prefetched_high_word $end
$var reg 1 2" clear_prefetched_high_word_q $end
$var reg 1 3" compressed_instr $end
$var reg 64 4" count_cycle [63:0] $end
$var reg 64 5" count_instr [63:0] $end
$var reg 8 6" cpu_state [7:0] $end
$var reg 32 7" cpuregs_rs1 [31:0] $end
$var reg 32 8" cpuregs_rs2 [31:0] $end
$var reg 32 9" cpuregs_wrdata [31:0] $end
$var reg 1 :" cpuregs_write $end
$var reg 32 ;" current_pc [31:0] $end
$var reg 64 <" dbg_ascii_instr [63:0] $end
$var reg 128 =" dbg_ascii_state [127:0] $end
$var reg 32 >" dbg_insn_addr [31:0] $end
$var reg 32 ?" dbg_insn_imm [31:0] $end
$var reg 32 @" dbg_insn_opcode [31:0] $end
$var reg 5 A" dbg_insn_rd [4:0] $end
$var reg 5 B" dbg_insn_rs1 [4:0] $end
$var reg 5 C" dbg_insn_rs2 [4:0] $end
$var reg 1 D" dbg_next $end
$var reg 32 E" dbg_rs1val [31:0] $end
$var reg 1 F" dbg_rs1val_valid $end
$var reg 32 G" dbg_rs2val [31:0] $end
$var reg 1 H" dbg_rs2val_valid $end
$var reg 1 I" dbg_valid_insn $end
$var reg 32 J" decoded_imm [31:0] $end
$var reg 32 K" decoded_imm_j [31:0] $end
$var reg 5 L" decoded_rd [4:0] $end
$var reg 5 M" decoded_rs [4:0] $end
$var reg 5 N" decoded_rs1 [4:0] $end
$var reg 5 O" decoded_rs2 [4:0] $end
$var reg 1 P" decoder_pseudo_trigger $end
$var reg 1 Q" decoder_pseudo_trigger_q $end
$var reg 1 R" decoder_trigger $end
$var reg 1 S" decoder_trigger_q $end
$var reg 1 T" do_waitirq $end
$var reg 32 U" eoi [31:0] $end
$var reg 1 V" instr_add $end
$var reg 1 W" instr_addi $end
$var reg 1 X" instr_and $end
$var reg 1 Y" instr_andi $end
$var reg 1 Z" instr_auipc $end
$var reg 1 [" instr_beq $end
$var reg 1 \" instr_bge $end
$var reg 1 ]" instr_bgeu $end
$var reg 1 ^" instr_blt $end
$var reg 1 _" instr_bltu $end
$var reg 1 `" instr_bne $end
$var reg 1 a" instr_ecall_ebreak $end
$var reg 1 b" instr_fence $end
$var reg 1 c" instr_getq $end
$var reg 1 d" instr_jal $end
$var reg 1 e" instr_jalr $end
$var reg 1 f" instr_lb $end
$var reg 1 g" instr_lbu $end
$var reg 1 h" instr_lh $end
$var reg 1 i" instr_lhu $end
$var reg 1 j" instr_lui $end
$var reg 1 k" instr_lw $end
$var reg 1 l" instr_maskirq $end
$var reg 1 m" instr_or $end
$var reg 1 n" instr_ori $end
$var reg 1 o" instr_rdcycle $end
$var reg 1 p" instr_rdcycleh $end
$var reg 1 q" instr_rdinstr $end
$var reg 1 r" instr_rdinstrh $end
$var reg 1 s" instr_retirq $end
$var reg 1 t" instr_sb $end
$var reg 1 u" instr_setq $end
$var reg 1 v" instr_sh $end
$var reg 1 w" instr_sll $end
$var reg 1 x" instr_slli $end
$var reg 1 y" instr_slt $end
$var reg 1 z" instr_slti $end
$var reg 1 {" instr_sltiu $end
$var reg 1 |" instr_sltu $end
$var reg 1 }" instr_sra $end
$var reg 1 ~" instr_srai $end
$var reg 1 !# instr_srl $end
$var reg 1 "# instr_srli $end
$var reg 1 ## instr_sub $end
$var reg 1 $# instr_sw $end
$var reg 1 %# instr_timer $end
$var reg 1 &# instr_waitirq $end
$var reg 1 '# instr_xor $end
$var reg 1 (# instr_xori $end
$var reg 1 )# irq_active $end
$var reg 1 *# irq_delay $end
$var reg 32 +# irq_mask [31:0] $end
$var reg 32 ,# irq_pending [31:0] $end
$var reg 2 -# irq_state [1:0] $end
$var reg 1 .# is_alu_reg_imm $end
$var reg 1 /# is_alu_reg_reg $end
$var reg 1 0# is_beq_bne_blt_bge_bltu_bgeu $end
$var reg 1 1# is_compare $end
$var reg 1 2# is_jalr_addi_slti_sltiu_xori_ori_andi $end
$var reg 1 3# is_lb_lh_lw_lbu_lhu $end
$var reg 1 4# is_lbu_lhu_lw $end
$var reg 1 5# is_lui_auipc_jal $end
$var reg 1 6# is_lui_auipc_jal_jalr_addi_add_sub $end
$var reg 1 7# is_sb_sh_sw $end
$var reg 1 8# is_sll_srl_sra $end
$var reg 1 9# is_slli_srli_srai $end
$var reg 1 :# is_slti_blt_slt $end
$var reg 1 ;# is_sltiu_bltu_sltu $end
$var reg 1 <# last_mem_valid $end
$var reg 1 =# latched_branch $end
$var reg 1 ># latched_compr $end
$var reg 1 ?# latched_is_lb $end
$var reg 1 @# latched_is_lh $end
$var reg 1 A# latched_is_lu $end
$var reg 5 B# latched_rd [4:0] $end
$var reg 1 C# latched_stalu $end
$var reg 1 D# latched_store $end
$var reg 1 E# latched_trace $end
$var reg 32 F# mem_addr [31:0] $end
$var reg 1 G# mem_do_prefetch $end
$var reg 1 H# mem_do_rdata $end
$var reg 1 I# mem_do_rinst $end
$var reg 1 J# mem_do_wdata $end
$var reg 1 ) mem_instr $end
$var reg 1 K# mem_la_firstword_reg $end
$var reg 1 L# mem_la_secondword $end
$var reg 32 M# mem_la_wdata [31:0] $end
$var reg 4 N# mem_la_wstrb [3:0] $end
$var reg 32 O# mem_rdata_q [31:0] $end
$var reg 32 P# mem_rdata_word [31:0] $end
$var reg 2 Q# mem_state [1:0] $end
$var reg 1 ( mem_valid $end
$var reg 32 R# mem_wdata [31:0] $end
$var reg 2 S# mem_wordsize [1:0] $end
$var reg 4 T# mem_wstrb [3:0] $end
$var reg 64 U# new_ascii_instr [63:0] $end
$var reg 32 V# next_insn_opcode [31:0] $end
$var reg 32 W# next_irq_pending [31:0] $end
$var reg 32 X# pcpi_insn [31:0] $end
$var reg 32 Y# pcpi_int_rd [31:0] $end
$var reg 1 Z# pcpi_int_ready $end
$var reg 1 [# pcpi_int_wait $end
$var reg 1 \# pcpi_int_wr $end
$var reg 1 ]# pcpi_timeout $end
$var reg 1 ^# pcpi_valid $end
$var reg 1 _# prefetched_high_word $end
$var reg 64 `# q_ascii_instr [63:0] $end
$var reg 32 a# q_insn_imm [31:0] $end
$var reg 32 b# q_insn_opcode [31:0] $end
$var reg 5 c# q_insn_rd [4:0] $end
$var reg 5 d# q_insn_rs1 [4:0] $end
$var reg 5 e# q_insn_rs2 [4:0] $end
$var reg 32 f# reg_next_pc [31:0] $end
$var reg 32 g# reg_op1 [31:0] $end
$var reg 32 h# reg_op2 [31:0] $end
$var reg 32 i# reg_out [31:0] $end
$var reg 32 j# reg_pc [31:0] $end
$var reg 5 k# reg_sh [4:0] $end
$var reg 1 l# set_mem_do_rdata $end
$var reg 1 m# set_mem_do_rinst $end
$var reg 1 n# set_mem_do_wdata $end
$var reg 32 o# timer [31:0] $end
$var reg 36 p# trace_data [35:0] $end
$var reg 1 q# trace_valid $end
$var reg 1 r# trap $end
$scope begin genblk1 $end
$upscope $end
$scope begin genblk2 $end
$upscope $end
$scope begin genblk3 $end
$upscope $end
$scope task empty_statement $end
$upscope $end
$upscope $end
$scope module ram0 $end
$var wire 1 ! clk $end
$var wire 32 s# mem_addr [31:0] $end
$var wire 32 t# mem_rdata [31:0] $end
$var wire 1 ( mem_valid $end
$var wire 32 u# mem_wdata [31:0] $end
$var wire 1 v# mem_write $end
$upscope $end
$upscope $end
$upscope $end
$enddefinitions $end
$comment Show the parameter values. $end
$dumpall
b101 |
b100000 {
b100000 z
b0 y
b1 x
b10 w
b10000000 v
b10 u
b100 t
b1 s
b10000 r
b100000 q
b1000000 p
b1000 o
0n
1m
0l
0k
b100000000000000000000000000000000000 j
b100000000000000000000000000000000 i
b1000000000000000000000000000000000 h
b11111111111111111111111111111111 g
0f
b0 e
b10000 d
b0 c
0b
b11111111111111111111111111111111 a
0`
1_
1^
0]
0\
1[
1Z
0Y
0X
0W
1V
1U
0T
1S
1R
0Q
$end
#0
$dumpvars
xv#
bx u#
bx t#
bx s#
xr#
xq#
bx p#
bx o#
xn#
xm#
xl#
bx k#
bx j#
bx i#
bx h#
bx g#
bx f#
bx e#
bx d#
bx c#
bx b#
bx a#
bx `#
x_#
x^#
x]#
0\#
0[#
0Z#
bx Y#
bx X#
bx W#
bx V#
bx U#
bx T#
bx S#
bx R#
bx Q#
bx P#
bx O#
bx N#
bx M#
xL#
xK#
xJ#
xI#
xH#
xG#
bx F#
xE#
xD#
xC#
bx B#
xA#
x@#
x?#
x>#
x=#
x<#
x;#
x:#
x9#
x8#
x7#
x6#
x5#
x4#
x3#
x2#
x1#
x0#
x/#
x.#
bx -#
bx ,#
bx +#
x*#
x)#
x(#
x'#
x&#
x%#
x$#
x##
x"#
x!#
x~"
x}"
x|"
x{"
xz"
xy"
xx"
xw"
xv"
xu"
xt"
xs"
xr"
xq"
xp"
xo"
xn"
xm"
xl"
xk"
xj"
xi"
xh"
xg"
xf"
xe"
xd"
xc"
xb"
xa"
x`"
x_"
x^"
x]"
x\"
x["
xZ"
xY"
xX"
xW"
xV"
bx U"
xT"
xS"
xR"
xQ"
xP"
bx O"
bx N"
bx M"
bx L"
bx K"
bx J"
xI"
xH"
bx G"
xF"
bx E"
xD"
bx C"
bx B"
bx A"
bx @"
bx ?"
bx >"
bx ="
bx <"
bx ;"
x:"
bx 9"
bx 8"
bx 7"
bx 6"
bx 5"
bx 4"
x3"
x2"
01"
bx 0"
bx /"
bx ."
bx -"
bx ,"
bx +"
x*"
x)"
bx ("
bx '"
bx &"
x%"
x$"
bx #"
x""
x!"
x~
bx }
xP
xO
bx00 N
bx M
bx L
zK
zJ
bx I
bx H
zG
bz F
0E
0D
0C
bx B
0A
0@
0?
bx >
x=
bx <
bx ;
0:
09
08
07
06
05
x4
bz 3
x2
bx 1
bx 0
x/
x.
bx -
x,
bx +
bx *
x)
x(
bx '
bx &
bx %
x$
bx #
0"
0!
$end
#5000
0=
04
b0 U#
b110011001100101011101000110001101101000 ="
b0 L
0:"
0<#
0K#
0_#
0L#
0/
0.
0$
0(
b0 Q#
0I"
0b"
0X"
0m"
0}"
0!#
0'#
0|"
0y"
0w"
0##
0V"
0Y"
0n"
0(#
0{"
0z"
0W"
0]"
0_"
0\"
0^"
0`"
0["
01#
00#
02"
b0 ,#
0O
0J#
0H#
0I#
0G#
b1000000 6"
b0 o#
b0 U"
b0 -#
b11111111111111111111111111111111 +#
0*#
0)#
0]#
0^#
0?#
0@#
0A#
0E#
0=#
0C#
0D#
b0 5"
b0 f#
b0 j#
0q#
0T"
0P"
0R"
b0 4"
0*"
0)"
0r#
b0 W#
0n#
0l#
0m#
1!
#10000
0!
#15000
0Q"
0S"
0;#
0:#
0D"
b0 W#
1!
#20000
0!
#25000
b0 W#
1!
#30000
0!
#35000
b0 W#
1!
#40000
0!
#45000
b0 W#
1!
#50000
0!
#55000
b0 W#
1!
#60000
0!
#65000
b0 W#
1!
#70000
0!
#75000
b0 W#
1!
#80000
0!
#85000
b0 W#
1!
#90000
0!
#95000
b0 W#
1!
#100000
0!
1"
#105000
18
b0 N
b1111 N#
bx ,#
b0 S#
1O
1I#
b1 4"
bx ;"
bx W#
1!
#110000
0!
#115000
15
08
b1011110110111 <
b1011110110111 M
1=
b1011110110111 P#
b1011110110111 -
b1011110110111 #
b1011110110111 ;
b1011110110111 %
b1011110110111 t#
b10 4"
b1 Q#
1,
1)
1/
1.
1$
1(
b0 1
0v#
b0 &
b0 T#
b0 +
b0 *
b0 F#
b0 s#
bx ;"
1!
#120000
0!
#125000
05
0=
bx00 N
14
b0 8"
b0 7"
b11011000111010101101001 U#
02
b0 Q#
0/
0.
0$
0(
b1011110110111 V#
b1011110110111 O#
03"
b0 O"
b0 N"
b1111 L"
b1000000000000 K"
0/#
0.#
07#
03#
0&#
0s"
0e"
0d"
0Z"
1j"
0O
0I#
1R"
b11 4"
bx ;"
1!
#130000
0!
#135000
18
b100 N
04
b11011000110010001011111011100100111001100110001 ="
b100 L
b11011000111010101101001 U#
b1111 A"
b0 C"
b0 B"
b1000000000000 ?"
b1011110110111 @"
b11011000111010101101001 <"
b100000 6"
1O
1G#
b1 5"
b100 f#
0>#
b1111 B#
1S"
0R"
b100 4"
0H"
0F"
b1000000000000 J"
08#
02#
09#
0%#
0l"
0u"
0c"
0a"
0P
0r"
0q"
0p"
0o"
0~"
0"#
0x"
0$#
0v"
0t"
0i"
0g"
0k"
0h"
0f"
06#
15#
b0 >"
1I"
1D"
bx ;"
1!
#140000
0!
#145000
15
08
b1100001111010011100000011 <
b1100001111010011100000011 M
1=
b1100001111010011100000011 P#
b1100001111010011100000011 -
b1100001111010011100000011 #
b1100001111010011100000011 ;
b1100001111010011100000011 %
b1100001111010011100000011 t#
b1100101011110000110010101100011 ="
b1000000000000 #"
b1000000000000 M#
b0 ("
b0 '"
1""
1!"
0~
b1000000000000 }
b1 Q#
1/
1.
1$
1(
b100 +
b100 *
b100 F#
b100 s#
b1111 ."
b0 0"
b0 /"
b1011110110111 -"
b1000000000000 ,"
b11011000111010101101001 +"
0D"
b1111 c#
b0 e#
b0 d#
b1011110110111 b#
b1000000000000 a#
b11011000111010101101001 `#
04#
16#
b1000 6"
1I#
b1000000000000 I
b1000000000000 h#
b0 H
b0 g#
0S"
b101 4"
1!
#150000
0!
#155000
05
0=
b0 N
14
b110011001100101011101000110001101101000 ="
1:"
b1000000000000 9"
bx 8"
bx 7"
b0 U#
12
b0 Q#
0/
0.
0$
0(
0O
0I#
0G#
b1000000 6"
1C#
1D#
b1000000000000 i#
1R"
b110 4"
b1000000000000 &"
b11000 O"
b1111 N"
b1110 L"
b1111010000000011000 K"
13#
0j"
b1100001111010011100000011 V#
b1100001111010011100000011 O#
1!
#160000
0!
#165000
18
b1000 N
04
b1110 A"
b11000 C"
b1111 B"
b11000 ?"
b1100001111010011100000011 @"
b110110001110111 <"
b110110001110111 U#
02
bx #"
b1000000000000 7"
b11011000110010001011111011100100111001100110001 ="
b1000 L
bx 9"
0:"
b100 >"
1D"
b11000 J"
1k"
06#
05#
b100000 6"
1O
1G#
b10 5"
b1000 f#
b1110 B#
0C#
0D#
b100 j#
1S"
0R"
b111 4"
bx i#
bx ;"
1!
#170000
0!
#175000
15
08
b10010001101000101011110110111 <
b10010001101000101011110110111 M
1=
b10010001101000101011110110111 P#
b10010001101000101011110110111 -
b10010001101000101011110110111 #
b10010001101000101011110110111 ;
b10010001101000101011110110111 %
b10010001101000101011110110111 t#
b110110001100100011011010110010101101101 ="
bx M#
bx ("
bx '"
x""
x!"
x~
bx }
b1 Q#
1/
1.
1$
1(
b1000 +
b1000 *
b1000 F#
b1000 s#
1I#
b1 6"
1F"
b1000000000000 E"
bx I
bx h#
b1000000000000 H
b1000000000000 g#
0S"
b1000 4"
bx &"
14#
b1110 ."
b11000 0"
b1111 /"
b1100001111010011100000011 -"
b11000 ,"
b110110001110111 +"
0D"
b1110 c#
b11000 e#
b1111 d#
b1100001111010011100000011 b#
b11000 a#
b110110001110111 `#
1!
#180000
0!
#185000
05
18
0=
b1000000011000 N
bx 7"
b110110001110111 U#
b0 Q#
0/
0.
0$
0(
b10010001101000101011110110111 V#
b10010001101000101011110110111 O#
b11 O"
b1000 N"
b1111 L"
b1000101100100100010 K"
03#
1j"
1H#
1O
0I#
0G#
b1000000011000 H
b1000000011000 g#
1A#
1D#
1R"
b1001 4"
1l#
1!
#190000
0!
#195000
15
08
b100000 <
b100000 M
1=
b100000 P#
b11011000111010101101001 U#
b100000 -
b100000 #
b100000 ;
b100000 %
b100000 t#
1S"
0R"
b1010 4"
b10010001101000101000000000000 J"
0k"
06#
15#
b1 Q#
0,
0)
1/
1.
1$
1(
b1000000011000 +
b1000000011000 *
b1000000011000 F#
b1000000011000 s#
0l#
1!
#200000
0!
#205000
05
0=
14
b110011001100101011101000110001101101000 ="
1:"
b100000 9"
b0 Q#
0/
0.
0$
0(
b100000 V#
b100000 O#
b1111 ."
b11 0"
b1000 /"
b10010001101000101011110110111 -"
b10010001101000101000000000000 ,"
b11011000111010101101001 +"
04#
16#
0O
0H#
b1000000 6"
1P"
1R"
b100000 i#
0S"
b1011 4"
1!
#210000
0!
#215000
18
b1100 N
04
b11011000110010001011111011100100111001100110001 ="
b1100 L
bx 9"
0:"
b1111 A"
b11 C"
b1000 B"
b10010001101000101011110110111 @"
b10010001101000101000000000000 ?"
b11011000111010101101001 <"
b100000 6"
1O
1G#
b11 5"
b1100 f#
b1111 B#
0A#
0D#
b1000 j#
1Q"
0P"
1S"
0R"
b1100 4"
0F"
bx E"
bx i#
b1000 >"
1D"
bx ;"
1!
#220000
0!
#225000
15
08
b1100111100001111000011110010011 <
b1100111100001111000011110010011 M
1=
b1100111100001111000011110010011 P#
b1100111100001111000011110010011 -
b1100111100001111000011110010011 #
b1100111100001111000011110010011 ;
b1100111100001111000011110010011 %
b1100111100001111000011110010011 t#
b1100101011110000110010101100011 ="
b10010001101000101000000000000 #"
b10010001101000101000000000000 M#
b0 ("
b0 '"
1""
1!"
0~
b10010001101000101000000000000 }
b1 Q#
1,
1)
1/
1.
1$
1(
b1100 +
b1100 *
b1100 F#
b1100 s#
b100000 -"
0D"
b1111 c#
b11 e#
b1000 d#
b10010001101000101011110110111 b#
b10010001101000101000000000000 a#
b11011000111010101101001 `#
b1000 6"
1I#
b10010001101000101000000000000 I
b10010001101000101000000000000 h#
b0 H
b0 g#
0Q"
0S"
b1101 4"
1!
#230000
0!
#235000
05
0=
b0 N
14
b110011001100101011101000110001101101000 ="
1:"
b10010001101000101000000000000 9"
b1000000000000 7"
b0 U#
12
b0 Q#
0/
0.
0$
0(
0O
0I#
0G#
b1000000 6"
1C#
1D#
b10010001101000101000000001000 i#
1R"
b1110 4"
b10010001101000101000000000000 &"
b11000 O"
b1111 N"
b1111000011001111000 K"
1.#
0j"
b1100111100001111000011110010011 V#
b1100111100001111000011110010011 O#
1!
#240000
0!
#245000
18
b10000 N
04
b11000 C"
b1111 B"
b11001111000 ?"
b1100111100001111000011110010011 @"
b1100001011001000110010001101001 <"
b1100001011001000110010001101001 U#
02
bx #"
b10010001101000101000000000000 7"
b11011000110010001011111011100100111001100110001 ="
b10000 L
bx 9"
0:"
b1100 >"
1D"
b11001111000 J"
12#
1W"
06#
05#
b100000 6"
1O
1G#
b100 5"
b10000 f#
0C#
0D#
b1100 j#
1S"
0R"
b1111 4"
bx i#
bx ;"
1!
#250000
0!
#255000
15
08
b111101110010000000100011 <
b111101110010000000100011 M
1=
b111101110010000000100011 P#
b111101110010000000100011 -
b111101110010000000100011 #
b111101110010000000100011 ;
b111101110010000000100011 %
b111101110010000000100011 t#
b1100101011110000110010101100011 ="
b11001111000 M#
b10010 ("
0""
0!"
b10010001101000101011001111000 }
b10010001101000101011001111000 #"
b1 Q#
1/
1.
1$
1(
b10000 +
b10000 *
b10000 F#
b10000 s#
b1000 6"
1I#
1F"
b10010001101000101000000000000 E"
b11001111000 I
b11001111000 h#
b10010001101000101000000000000 H
b10010001101000101000000000000 g#
0S"
b10000 4"
bx &"
16#
b11000 0"
b1111 /"
b1100111100001111000011110010011 -"
b11001111000 ,"
b1100001011001000110010001101001 +"
0D"
b11000 e#
b1111 d#
b1100111100001111000011110010011 b#
b11001111000 a#
b1100001011001000110010001101001 `#
1!
#260000
0!
#265000
05
0=
b10010001101000101000000000000 N
14
b10010001101000101000000000000 8"
b100000 7"
b110011001100101011101000110001101101000 ="
1:"
b10010001101000101011001111000 9"
b0 Q#
0/
0.
0$
0(
b111101110010000000100011 V#
b111101110010000000100011 O#
b1111 O"
b1110 N"
b0 L"
b1110010100000001110 K"
0.#
17#
0O
0I#
0G#
b1000000 6"
1C#
1D#
b11010000100 i#
1R"
b10001 4"
b10010001101000101011001111000 &"
1!
#270000
0!
#275000
18
b10100 N
04
b111001101110111 <"
b11011000110010001011111011100100111001100110001 ="
b10100 L
bx 9"
0:"
b10010001101000101011001111000 8"
bx #"
b111001101110111 U#
b0 A"
b1111 C"
b1110 B"
b0 ?"
b111101110010000000100011 @"
b100000 6"
1O
1G#
b101 5"
b10100 f#
b0 B#
0C#
0D#
b10000 j#
1S"
0R"
b10010 4"
0F"
bx E"
bx i#
b0 J"
06#
02#
0W"
1$#
b10000 >"
1D"
bx ;"
1!
#280000
0!
#285000
15
08
b1101111 <
b1101111 M
1=
b1101111 P#
b1101111 -
b1101111 #
b1101111 ;
b1101111 %
b1101111 t#
b111001101110100011011010110010101101101 ="
b10010001101000101011001111000 M#
b0 ("
b100000000000000000000000000000 '"
1""
1!"
b10010001101000101011010011000 }
b1 Q#
1/
1.
1$
1(
b10100 +
b10100 *
b10100 F#
b10100 s#
b0 ."
b1111 0"
b1110 /"
b111101110010000000100011 -"
b0 ,"
b111001101110111 +"
0D"
b0 c#
b1111 e#
b1110 d#
b111101110010000000100011 b#
b0 a#
b111001101110111 `#
1I#
b10 6"
1H"
b10010001101000101011001111000 G"
b11000 k#
1F"
b100000 E"
b10010001101000101011001111000 I
b10010001101000101011001111000 h#
b100000 H
b100000 g#
0S"
b10011 4"
bx &"
1!
#290000
0!
#295000
05
1:
0=
b100000 N
b0 8"
b0 7"
b111001101110111 U#
b0 Q#
0/
0.
0$
0(
1J#
1O
0I#
0G#
1R"
b10100 4"
bx k#
b0 O"
b0 N"
b0 K"
07#
1d"
b1101111 V#
b1101111 O#
1n#
1!
#300000
0!
#305000
15
bx <
bx M
0:
1=
bx P#
b11010100110000101101100 U#
bx -
bx #
bx ;
bx %
bx t#
0$#
06#
15#
1S"
0R"
b10101 4"
b10 Q#
0,
0)
1/
1.
1$
1(
b10010001101000101011001111000 0
b10010001101000101011001111000 '
b10010001101000101011001111000 R#
b10010001101000101011001111000 u#
b1111 1
1v#
b1111 &
b1111 T#
b100000 +
b100000 *
b100000 F#
b100000 s#
0n#
1!
#310000
0!
#315000
05
0=
14
b10010001101000101011001111000 P#
bx <
bx M
b110011001100101011101000110001101101000 ="
b10010001101000101011010011000 #"
b0 Q#
0/
0.
0$
0(
b10010001101000101011001111000 -
b10010001101000101011001111000 #
b10010001101000101011001111000 ;
b10010001101000101011001111000 %
b10010001101000101011001111000 t#
0O
0J#
1P"
1R"
b1000000 6"
0S"
b10110 4"
16#
b0 0"
b0 /"
b1101111 -"
b11010100110000101101100 +"
bx V#
bx O#
1!
#320000
0!
#325000
18
b10100 N
04
b0 C"
b0 B"
b1101111 @"
b11010100110000101101100 <"
1:"
b11000 9"
b10100 >"
1D"
1=#
1O
1I#
b110 5"
b10100 f#
b10100 j#
1Q"
0P"
1S"
0R"
b10111 4"
0H"
0F"
bx G"
bx E"
b10010001101000101011010011000 &"
bx ;"
1!
#330000
0!
#335000
15
08
b1101111 <
b1101111 M
1=
b1101111 P#
b1101111 -
b1101111 #
b1101111 ;
b1101111 %
b1101111 t#
bx 9"
0:"
b1 Q#
1,
1)
1/
1.
1$
1(
b0 1
0v#
b0 &
b0 T#
b10100 +
b10100 *
b10100 F#
b10100 s#
0=#
0Q"
0S"
b11000 4"
b0xxxxxxxxxxxxxxxx -"
0D"
b0 e#
b0 d#
b1101111 b#
b11010100110000101101100 `#
bx ;"
1!
#340000
0!
#345000
05
0=
b100000 N
14
b0 Q#
0/
0.
0$
0(
b1101111 V#
b1101111 O#
0O
0I#
1R"
b11001 4"
bx ;"
1!
#350000
0!
#355000
18
b10100 N
04
1:"
b11000 9"
bx #"
1=#
1O
1I#
b111 5"
b10100 f#
1S"
0R"
b11010 4"
06#
1D"
bx ;"
1!
#360000
0!
#365000
15
08
1=
b10010001101000101011010011000 #"
bx 9"
0:"
b1 Q#
1/
1.
1$
1(
b1101111 -"
0D"
16#
0=#
0S"
b11011 4"
bx &"
bx ;"
1!
#370000
0!
#375000
05
0=
b100000 N
14
b0 Q#
0/
0.
0$
0(
0O
0I#
1R"
b11100 4"
b10010001101000101011010011000 &"
bx ;"
1!
#380000
0!
#385000
18
b10100 N
04
bx #"
1:"
b11000 9"
1D"
06#
1=#
1O
1I#
b1000 5"
b10100 f#
1S"
0R"
b11101 4"
bx ;"
1!
#390000
0!
#395000
15
08
1=
bx 9"
0:"
b10010001101000101011010011000 #"
b1 Q#
1/
1.
1$
1(
0=#
0S"
b11110 4"
bx &"
16#
0D"
bx ;"
1!
#400000
0!
#405000
05
0=
b100000 N
14
b0 Q#
0/
0.
0$
0(
0O
0I#
1R"
b11111 4"
b10010001101000101011010011000 &"
bx ;"
1!
#410000
0!
#415000
18
b10100 N
04
1:"
b11000 9"
bx #"
1=#
1O
1I#
b1001 5"
b10100 f#
1S"
0R"
b100000 4"
06#
1D"
bx ;"
1!
#420000
0!
